cardiotocography_descriptive_n_EDA_april04.knit
…
kruskal test on the machine dataset, see most affected variables by NSP class

library(broom)
no_norm_df_machine <- subset (no_norm_df, select = -c(A, B, C, D, E, AD, DE, LD, FS, SUSP, CLASS))

kwt_df <- no_norm_df_machine %>% gather(key, value, -NSP) %>% 
       group_by(key) %>% 
       do(tidy(kruskal.test(x= .$value, g = .$NSP)))

kwt_df[with(kwt_df, order(p.value, statistic)), ]

## # A tibble: 22 x 5
## # Groups:   key [22]
##    key      statistic   p.value parameter method                      
##    <chr>        <dbl>     <dbl>     <int> <chr>                       
##  1 DP            538. 1.17e-117         2 Kruskal-Wallis rank sum test
##  2 ASTV          533. 1.46e-116         2 Kruskal-Wallis rank sum test
##  3 AC            441. 1.37e- 96         2 Kruskal-Wallis rank sum test
##  4 MSTV          383. 5.83e- 84         2 Kruskal-Wallis rank sum test
##  5 ALTV          367. 1.78e- 80         2 Kruskal-Wallis rank sum test
##  6 LB            254. 5.92e- 56         2 Kruskal-Wallis rank sum test
##  7 Median        189. 9.89e- 42         2 Kruskal-Wallis rank sum test
##  8 UC            160. 2.13e- 35         2 Kruskal-Wallis rank sum test
##  9 Mean          153. 5.61e- 34         2 Kruskal-Wallis rank sum test
## 10 Variance      140. 5.00e- 31         2 Kruskal-Wallis rank sum test
## # ... with 12 more rows

#str(no_norm_df_machine)

kruskal test on the machine dataset, see least affected variables by NSP class

kwt_df[with(kwt_df, order(-p.value, statistic)), ]

## # A tibble: 22 x 5
## # Groups:   key [22]
##    key      statistic  p.value parameter method                      
##    <chr>        <dbl>    <dbl>     <int> <chr>                       
##  1 nPoints       5.75 5.63e- 2         2 Kruskal-Wallis rank sum test
##  2 Max           8.82 1.22e- 2         2 Kruskal-Wallis rank sum test
##  3 Nzeros       12.2  2.26e- 3         2 Kruskal-Wallis rank sum test
##  4 FM           16.3  2.83e- 4         2 Kruskal-Wallis rank sum test
##  5 Min          22.0  1.70e- 5         2 Kruskal-Wallis rank sum test
##  6 Nmax         49.4  1.87e-11         2 Kruskal-Wallis rank sum test
##  7 Width        52.1  4.93e-12         2 Kruskal-Wallis rank sum test
##  8 DS           55.5  9.04e-13         2 Kruskal-Wallis rank sum test
##  9 Tendency     71.3  3.22e-16         2 Kruskal-Wallis rank sum test
## 10 MLTV         86.6  1.58e-19         2 Kruskal-Wallis rank sum test
## # ... with 12 more rows
…
