cardiotocography_descriptive_n_EDA.knit
…
# kruskal test on the min max normalized dataset

#for(i in names(df7[1:23])){  
#  kwt<-kruskal.test(formula(paste(i, "~ NSP")), data = df7)
#  print(kwt)
#}

library(broom)
kwt_df <- df7 %>% gather(key, value, -NSP) %>% 
       group_by(key) %>% 
       do(tidy(kruskal.test(x= .$value, g = .$NSP)))
#kwt_df #df5
kwt_df[with(kwt_df, order(p.value, statistic)), ] # printing most discerning variables

## # A tibble: 33 x 5
## # Groups:   key [33]
##    key   statistic   p.value parameter method                      
##    <chr>     <dbl>     <dbl>     <int> <chr>                       
##  1 SUSP      1331. 8.57e-290         2 Kruskal-Wallis rank sum test
##  2 LD        1248. 1.13e-271         2 Kruskal-Wallis rank sum test
##  3 FS         765. 7.28e-167         2 Kruskal-Wallis rank sum test
##  4 nDP        542. 2.09e-118         2 Kruskal-Wallis rank sum test
##  5 ASTV       533. 1.46e-116         2 Kruskal-Wallis rank sum test
##  6 CLASS      519. 2.13e-113         2 Kruskal-Wallis rank sum test
##  7 ALTV       496. 1.91e-108         2 Kruskal-Wallis rank sum test
##  8 nAC        453. 4.47e- 99         2 Kruskal-Wallis rank sum test
##  9 E          419. 1.20e- 91         2 Kruskal-Wallis rank sum test
## 10 MSTV       383. 5.83e- 84         2 Kruskal-Wallis rank sum test
## # ... with 23 more rows

# kruskal test on the min max normalized dataset

kwt_df[with(kwt_df, order(-p.value, statistic)), ]# reading the least discerning variables

## # A tibble: 33 x 5
## # Groups:   key [33]
##    key      statistic  p.value parameter method                      
##    <chr>        <dbl>    <dbl>     <int> <chr>                       
##  1 nPoints       2.67 2.63e- 1         2 Kruskal-Wallis rank sum test
##  2 Max           8.82 1.22e- 2         2 Kruskal-Wallis rank sum test
##  3 Nzeros       12.2  2.25e- 3         2 Kruskal-Wallis rank sum test
##  4 C            15.5  4.39e- 4         2 Kruskal-Wallis rank sum test
##  5 D            24.0  6.29e- 6         2 Kruskal-Wallis rank sum test
##  6 nFM          27.5  1.07e- 6         2 Kruskal-Wallis rank sum test
##  7 DE           32.4  9.35e- 8         2 Kruskal-Wallis rank sum test
##  8 Nmax         38.8  3.81e- 9         2 Kruskal-Wallis rank sum test
##  9 nDS          55.5  8.79e-13         2 Kruskal-Wallis rank sum test
## 10 Tendency     71.3  3.22e-16         2 Kruskal-Wallis rank sum test
## # ... with 23 more rows
…
